[
  {
    "id": "c3729777-7c5e-4a65-aeab-56d37ceb7d83",
    "name": "Agrisano_Krankenkasse"
  },
  {
    "id": "2506d14c-ccfb-4921-9c99-5e4b5cd07126",
    "name": "AMB_Assurances_Krankenkasse"
  },
  {
    "id": "64aab20d-bfc3-4434-a946-a1055e3de1ce",
    "name": "Aquilana_Krankenkasse"
  },
  {
    "id": "6c08b4c8-7bc9-47dd-8edc-0ba071c55fb2",
    "name": "Arcosana_Krankenkasse"
  },
  {
    "id": "3b66900e-25a2-4be4-a546-58b060f049d2",
    "name": "Arcosana_Schlieren"
  },
  {
    "id": "1b0bb9eb-f966-49fd-90ce-76241de7868f",
    "name": "Assura_Krankenkasse"
  },
  {
    "id": "cddabddf-5a0f-4c67-a02d-76b5f6500a8f",
    "name": "Atupri_Krankenkasse"
  },
  {
    "id": "e55e22ea-2541-45de-b2ca-1b696d0997f3",
    "name": "Avenir_Krankenkasse"
  },
  {
    "id": "881d7c90-3c21-4c64-a01d-83da61f7b3c6",
    "name": "AXA_Versicherungen_AG"
  },
  {
    "id": "94297907-5d49-45f7-b528-6fa746945055",
    "name": "Cassa_da_malsauns_Lumneziana_Krankenkasse"
  },
  {
    "id": "587c9751-48df-4334-a9de-8520c3933bf4",
    "name": "CM_Vallee_d_Entremont_Krankenkasse"
  },
  {
    "id": "423e7f9d-2bb7-4a64-8770-a17d50b8801e",
    "name": "Compact_Krankenkasse"
  },
  {
    "id": "ccd06976-6f5b-49c1-815f-50df9c73fcb0",
    "name": "Concordia_Krankenkasse"
  },
  {
    "id": "21dff821-7a77-4f75-b870-4c4e77fd1ff0",
    "name": "CSS"
  },
  {
    "id": "0d9c493e-6d14-4231-b129-b5db218cd61d",
    "name": "CSS_Schlieren"
  },
  {
    "id": "fce7edac-c7d3-4ea0-9731-c76a301f02ab",
    "name": "Easy_Sana_Krankenkasse"
  },
  {
    "id": "2b808d52-520b-40e1-be04-72ff7bb03498",
    "name": "EGK_Gesundheitskasse"
  },
  {
    "id": "b77375b0-d03b-46c3-aeeb-7010a58541a1",
    "name": "GALENOS_Kranken_und_Unfallversicherung"
  },
  {
    "id": "d55d4b5c-8e37-46b4-b04f-3db975ec6a35",
    "name": "Glarner_Krankenversicherung"
  },
  {
    "id": "3da7a642-79ec-471c-96cf-503d0be53414",
    "name": "Groupe_Mutuel"
  },
  {
    "id": "89dd5b90-b9ef-4b83-b20c-151e709f0805",
    "name": "Helsana_GA_Baden"
  },
  {
    "id": "0a552ae4-f7b8-42ce-b562-b335adc6a8ac",
    "name": "Helsana_GA_Solothurn"
  },
  {
    "id": "d455cb7d-e55b-471b-9e71-cc8ba61dd65f",
    "name": "Helsana_Versicherungen_AG"
  },
  {
    "id": "335adda0-c58b-4030-b13c-337adcc84bb0",
    "name": "Innova"
  },
  {
    "id": "a13d4140-5771-46af-9837-ac0ec7b2ffd2",
    "name": "Intras_Krankenkasse"
  },
  {
    "id": "6ac1e277-15b7-4130-ba54-eb47e891fa60",
    "name": "Intras_Schlieren"
  },
  {
    "id": "ef9da026-e439-485b-a7f4-ab2d9350f587",
    "name": "KK_Birchmeier"
  },
  {
    "id": "12d73581-6786-41f4-9efb-751d6bbad988",
    "name": "KK_Einsiedeln"
  },
  {
    "id": "cfef6f60-039f-4b65-b079-ddb9b5106295",
    "name": "KK_Ingenbohl"
  },
  {
    "id": "8b70b255-83a9-4d59-8b25-d2ba4697d985",
    "name": "KK_Luzerner_Hinterland"
  },
  {
    "id": "a409120f-bcab-4d6f-8dcf-623ff3c3571b",
    "name": "KK_Simplon"
  },
  {
    "id": "a4f61411-e453-4333-bcea-8e2f9c7bc1e0",
    "name": "KK_Steffisburg"
  },
  {
    "id": "ef7e1fc7-e18e-4a23-9c76-b062ac69f597",
    "name": "KK_Stoffel"
  },
  {
    "id": "89cb331d-c675-4140-95af-65986181c8f1",
    "name": "KK_Wadenswil"
  },
  {
    "id": "b82e206e-f2ef-4e43-8c19-743cdaa9023a",
    "name": "Klug_Krankenkasse"
  },
  {
    "id": "720b6ba9-1981-4311-bca4-2e4d4bc1e075",
    "name": "KPT_Krankenkasse"
  },
  {
    "id": "3b93be50-5b2c-4526-b298-0f97a4bc28c7",
    "name": "KVF_Krankenversicherung_AG"
  },
  {
    "id": "c1440b2e-f570-452d-ac52-dc5135384016",
    "name": "Mutuel_Assurance_Krankenkasse"
  },
  {
    "id": "42c73cbc-a68e-400d-a327-6aacf9783174",
    "name": "OKK"
  },
  {
    "id": "daae680b-33cc-4a80-b6ff-bb8d0ec30b77",
    "name": "Philos_Assurance"
  },
  {
    "id": "09a33e72-c7c2-4a3e-9ac1-8a93eaca59d7",
    "name": "Progres_GA_Baden"
  },
  {
    "id": "29774eb5-0e56-4d9b-bb83-f96eeea4fcca",
    "name": "Progres_GA_Solothurn"
  },
  {
    "id": "2101d95a-8023-4cd1-9255-e615c140c56f",
    "name": "Progres_Krankenkasse"
  },
  {
    "id": "ccb30f34-c113-4760-af16-cba6facad47b",
    "name": "PROVITA_Krankenkasse"
  },
  {
    "id": "9c0cd084-ee78-40eb-8cd3-f6939c303dbf",
    "name": "Rhenusana_Krankenkasse"
  },
  {
    "id": "20c8ee44-0c02-4f00-8283-b7ba378d6dc5",
    "name": "Sana24_Krankenkasse"
  },
  {
    "id": "91c2cd9a-1634-44a6-98ee-9c071ef9bc51",
    "name": "Sanagate_Krankenkasse"
  },
  {
    "id": "552ec9c6-e5d7-4e4d-a7d7-3b165d43190b",
    "name": "Sanagate_Schlieren"
  },
  {
    "id": "6798ce7e-18eb-41b9-be15-266049d03199",
    "name": "Sanavals_Gesundheitskasse"
  },
  {
    "id": "24fc223e-737f-47a1-93cc-90c0d8538de0",
    "name": "Sansan_Assurances_SA"
  },
  {
    "id": "9a5bf467-04b7-476c-8458-f2ba67610a9c",
    "name": "SLKK_Krankenkasse"
  },
  {
    "id": "e6477c3d-62c9-4ce9-b8b9-09667f654f0b",
    "name": "Sodalis_Krankenkasse"
  },
  {
    "id": "734776d0-15fa-41f4-9b14-dc7aab6d75bf",
    "name": "Sumiswalder_Krankenkasse"
  },
  {
    "id": "7f148f0a-a5b7-4b17-9fd6-2342f0c056f4",
    "name": "Supra_Assurance"
  },
  {
    "id": "a3d82351-ebfd-4297-aaf8-f0c392c7faed",
    "name": "Swica_Krankenkasse"
  },
  {
    "id": "aa850087-3e01-4a73-990c-3fcab8811157",
    "name": "Sympany_Kolping"
  },
  {
    "id": "c1084186-3a30-461c-b8d1-a1e3a4008368",
    "name": "Sympany_Moove"
  },
  {
    "id": "4d149983-1ecd-4a93-b6ec-56293fa3d1a9",
    "name": "Sympany_Vivao"
  },
  {
    "id": "739fc19d-6e4d-4ca2-aa06-a0c68bc79854",
    "name": "Visana_AG"
  },
  {
    "id": "eb03e8aa-ceac-43da-8256-7dc916108c5e",
    "name": "Vita_Surselva"
  },
  {
    "id": "a2c154e1-fa3c-4587-8e34-3503303bc30c",
    "name": "Vivacare_AG"
  }
]
