[
  { "id": "1a5e257b-58d4-4ea2-b7b1-5028defde15d", "name": "oaax" },
  { "id": "5ad2e5ce-f3df-400b-9eb7-895ef4423f07", "name": "proxym" },
  { "id": "b28cd488-e8ec-4999-96f5-d154bd9c0f4f", "name": "apple juice" }
]
